{
  "api_url": "http://instituteadmin.deepgrade.in:8080/institution/studentConfig",
  "headers": {
    "Authorization": "Bearer eyJhbGciOiJIUzUxMiJ9.eyJzdWIiOiJjb250ZXN0QGRlZXBncmFkZS5pbiIsImV4cCI6MTYwOTAwMTgwOSwiaWF0IjoxNjAzODE3ODA5fQ.ia8wgZ0We7cbGjoBe7Pzp9zBZptLzlSfJ2BOMTGQgdiUCAbbaxE8t9DvePBjlWjBP80fYOG4IvFULBM76xdvpg",
    "Tenant" : "JQD483",
    "Password" : ""
  },
  "body" : {
    "firstName": "",
    "lastName": "",
    "standard": "",
    "section": "",
    "rollNumber": "",
    "sex": "",
    "emailId": "",
    "loginId": "",
    "Password": "",
    "confirmPassword": ""
  }
}